[gd_scene load_steps=5 format=2]

[ext_resource path="res://assets/chary___.ttf" type="DynamicFontData" id=1]
[ext_resource path="res://src/interface/level_number.gd" type="Script" id=2]
[ext_resource path="res://src/interface/deathcount_level.gd" type="Script" id=3]

[sub_resource type="DynamicFont" id=1]
size = 48
font_data = ExtResource( 1 )

[node name="HUD" type="Control"]
anchor_right = 1.0
anchor_bottom = 1.0
__meta__ = {
"_edit_use_anchors_": false
}

[node name="deathcount_level" type="Label" parent="."]
margin_left = 20.0
margin_top = 70.0
margin_right = 820.0
margin_bottom = 80.0
custom_fonts/font = SubResource( 1 )
text = "Death Count: ? (?)"
script = ExtResource( 3 )
__meta__ = {
"_edit_use_anchors_": false
}

[node name="level_number" type="Label" parent="."]
margin_left = 20.0
margin_top = 20.0
margin_right = 820.0
margin_bottom = 80.0
custom_fonts/font = SubResource( 1 )
text = "Level: ?"
script = ExtResource( 2 )
__meta__ = {
"_edit_use_anchors_": false
}
